{"skills":[{"id":"aiskillstore/marketplace/memory-bank","name":"memory-bank","description":"Persistent project documentation system that maintains context across sessions. Creates structured Memory Bank files to preserve project knowledge, decisions, and progress.","githubOwner":"aiskillstore","githubRepo":"marketplace","githubStars":154,"downloadCount":0,"securityScore":100,"securityStatus":"pass","rating":0,"ratingCount":null,"isVerified":false,"compatibility":{"platforms":[]},"reviewStatus":"auto-scored","aiScore":null},{"id":"joaovjo/ai-prompts/memory-bank","name":"memory-bank","description":"Sistema de mem├│ria persistente baseado em arquivos e grafo de conhecimento. Agn├│stico a modelo de IA. Use para manter contexto entre sess├╡es.","githubOwner":"joaovjo","githubRepo":"ai-prompts","githubStars":2,"downloadCount":0,"securityScore":100,"securityStatus":null,"rating":0,"ratingCount":null,"isVerified":false,"compatibility":{"platforms":[]},"reviewStatus":null,"aiScore":null},{"id":"TrueCodePoet/Command-Bank/memory-bank","name":"memory-bank","description":"Maintain durable project context in memory-bank/ by consuming and updating the core files (projectbrief, productContext, systemPatterns, techContext, activeContext, progress, update-log). Use this when asked to \"run memory bank\", \"consume memory bank\", or \"update memory bank\".","githubOwner":"TrueCodePoet","githubRepo":"Command-Bank","githubStars":0,"downloadCount":0,"securityScore":100,"securityStatus":"pass","rating":0,"ratingCount":null,"isVerified":false,"compatibility":{"platforms":[]},"reviewStatus":"auto-scored","aiScore":null},{"id":"Guangyu321/marketplace/memory-bank","name":"memory-bank","description":"Persistent project documentation system that maintains context across sessions. Creates structured Memory Bank files to preserve project knowledge, decisions, and progress.","githubOwner":"Guangyu321","githubRepo":"marketplace","githubStars":0,"downloadCount":0,"securityScore":100,"securityStatus":null,"rating":0,"ratingCount":null,"isVerified":false,"compatibility":{"platforms":[]},"reviewStatus":null,"aiScore":null},{"id":"LarryCount/marketplace/memory-bank","name":"memory-bank","description":"Persistent project documentation system that maintains context across sessions. Creates structured Memory Bank files to preserve project knowledge, decisions, and progress.","githubOwner":"LarryCount","githubRepo":"marketplace","githubStars":0,"downloadCount":0,"securityScore":100,"securityStatus":null,"rating":0,"ratingCount":null,"isVerified":false,"compatibility":{"platforms":[]},"reviewStatus":null,"aiScore":null}],"pagination":{"page":1,"limit":5,"total":1000,"totalPages":200},"searchEngine":"meilisearch","processingTimeMs":9}
