{"skills":[{"id":"microsoft/vscode/memory-leak-audit","name":"memory-leak-audit","description":"Audit code for memory leaks and disposable issues. Use when reviewing event listeners, DOM handlers, lifecycle callbacks, or fixing leak reports. Covers addDisposableListener, Event.once, MutableDisposable, DisposableStore, and onWillDispose patterns.","githubOwner":"microsoft","githubRepo":"vscode","githubStars":182198,"downloadCount":2,"securityScore":100,"securityStatus":"pass","rating":0,"ratingCount":null,"isVerified":false,"compatibility":{"platforms":[]},"reviewStatus":"auto-scored","aiScore":null},{"id":"mem0ai/mem0/memory-dream","name":"memory-dream","description":"Memory consolidation protocol. Reviews all stored memories, merges duplicates, removes noise and credentials, rewrites unclear entries, and enforces TTL expiration. Use when the user asks to clean up, consolidate, or review their memories. Also triggers automatically after sufficient activity (configurable).\n","githubOwner":"mem0ai","githubRepo":"mem0","githubStars":51693,"downloadCount":0,"securityScore":100,"securityStatus":null,"rating":0,"ratingCount":null,"isVerified":false,"compatibility":{"platforms":[]},"reviewStatus":null,"aiScore":null},{"id":"mem0ai/mem0/memory-triage","name":"memory-triage","description":"ALWAYS USE THIS SKILL. Persistent long-term memory protocol powered by mem0. After EVERY response, evaluate the conversation for durable facts worth storing via memory_store. Handles identity, preferences, decisions, configurations, rules, projects, and relationships. Use memory_store (NOT workspace files) for all user facts. Read this skill at the start of every session.\n","githubOwner":"mem0ai","githubRepo":"mem0","githubStars":51693,"downloadCount":0,"securityScore":100,"securityStatus":null,"rating":0,"ratingCount":null,"isVerified":false,"compatibility":{"platforms":[]},"reviewStatus":null,"aiScore":null},{"id":"HKUDS/nanobot/memory","name":"memory","description":"Two-layer memory system with grep-based recall.","githubOwner":"HKUDS","githubRepo":"nanobot","githubStars":34324,"downloadCount":0,"securityScore":100,"securityStatus":null,"rating":0,"ratingCount":null,"isVerified":false,"compatibility":{"platforms":[]},"reviewStatus":null,"aiScore":null},{"id":"wshobson/agents/memory-forensics","name":"memory-forensics","description":"Master memory forensics techniques including memory acquisition, process analysis, and artifact extraction using Volatility and related tools. Use when analyzing memory dumps, investigating incidents, or performing malware analysis from RAM captures.","githubOwner":"wshobson","githubRepo":"agents","githubStars":28796,"downloadCount":0,"securityScore":100,"securityStatus":null,"rating":0,"ratingCount":null,"isVerified":false,"compatibility":{"platforms":[]},"reviewStatus":null,"aiScore":null},{"id":"wshobson/agents/memory-safety-patterns","name":"memory-safety-patterns","description":"Implement memory-safe programming with RAII, ownership, smart pointers, and resource management across Rust, C++, and C. Use when writing safe systems code, managing resources, or preventing memory bugs.","githubOwner":"wshobson","githubRepo":"agents","githubStars":28796,"downloadCount":0,"securityScore":100,"securityStatus":"pass","rating":0,"ratingCount":null,"isVerified":false,"compatibility":{"platforms":[]},"reviewStatus":"auto-scored","aiScore":null},{"id":"davila7/claude-code-templates/agent-memory-systems","name":"agent-memory-systems","description":"Memory is the cornerstone of intelligent agents. Without it, every interaction starts from zero. This skill covers the architecture of agent memory: short-term (context window), long-term (vector stores), and the cognitive architectures that organize them.  Key insight: Memory isn't just storage - it's retrieval. A million stored facts mean nothing if you can't find the right one. Chunking, embedding, and retrieval strategies determine whether your agent remembers or forgets.  The field is fragm","githubOwner":"davila7","githubRepo":"claude-code-templates","githubStars":20744,"downloadCount":0,"securityScore":100,"securityStatus":null,"rating":0,"ratingCount":null,"isVerified":false,"compatibility":{"platforms":[]},"reviewStatus":null,"aiScore":null},{"id":"ruvnet/claude-flow/memory-management","name":"memory-management","description":"AgentDB memory system with HNSW vector search. Use when: need to store patterns, search for solutions, semantic lookup. Skip when: no learning needed, ephemeral tasks.\n","githubOwner":"ruvnet","githubRepo":"claude-flow","githubStars":14157,"downloadCount":2,"securityScore":100,"securityStatus":"pass","rating":0,"ratingCount":null,"isVerified":false,"compatibility":{"platforms":[]},"reviewStatus":"auto-scored","aiScore":null},{"id":"sickn33/antigravity-awesome-skills/agent-memory-systems","name":"agent-memory-systems","description":"Memory is the cornerstone of intelligent agents. Without it, every interaction starts from zero. This skill covers the architecture of agent memory: short-term (context window), long-term (vector s...","githubOwner":"sickn33","githubRepo":"antigravity-awesome-skills","githubStars":13422,"downloadCount":0,"securityScore":100,"securityStatus":"pass","rating":0,"ratingCount":null,"isVerified":false,"compatibility":{"platforms":[]},"reviewStatus":"unreviewed","aiScore":null},{"id":"sickn33/antigravity-awesome-skills/memory-systems","name":"memory-systems","description":"Design short-term, long-term, and graph-based memory architectures","githubOwner":"sickn33","githubRepo":"antigravity-awesome-skills","githubStars":13422,"downloadCount":0,"securityScore":100,"securityStatus":"pass","rating":0,"ratingCount":null,"isVerified":false,"compatibility":{"platforms":[]},"reviewStatus":"unreviewed","aiScore":null}],"pagination":{"page":1,"limit":10,"total":1000,"totalPages":100},"searchEngine":"meilisearch","processingTimeMs":10}
